C:\Users\Onkar\eclipse-workspace\RestAssuredFramework_Using_TestNg_Annotations\src\CommonMethods\API_Trigger.java
C:\Users\Onkar\eclipse-workspace\RestAssuredFramework_Using_TestNg_Annotations\src\TestCases\_3_CreateBooking.java
C:\Users\Onkar\eclipse-workspace\RestAssuredFramework_Using_TestNg_Annotations\src\Repository\Environment.java
C:\Users\Onkar\eclipse-workspace\RestAssuredFramework_Using_TestNg_Annotations\src\TestCases\_1_Api_HealthCheck.java
C:\Users\Onkar\eclipse-workspace\RestAssuredFramework_Using_TestNg_Annotations\src\TestCases\DataProvider_Annotation_Different_class.java
C:\Users\Onkar\eclipse-workspace\RestAssuredFramework_Using_TestNg_Annotations\src\CommonMethods\Utility.java
C:\Users\Onkar\eclipse-workspace\RestAssuredFramework_Using_TestNg_Annotations\src\TestCases\CreateBooking_TestNg_Annotations.java
C:\Users\Onkar\eclipse-workspace\RestAssuredFramework_Using_TestNg_Annotations\src\TestCases\_2_CreateAuth.java
C:\Users\Onkar\eclipse-workspace\RestAssuredFramework_Using_TestNg_Annotations\src\TestCases\_5_UpdateBooking.java
C:\Users\Onkar\eclipse-workspace\RestAssuredFramework_Using_TestNg_Annotations\src\TestCases\_6_DeleteBooking.java
C:\Users\Onkar\eclipse-workspace\RestAssuredFramework_Using_TestNg_Annotations\src\Repository\RequestBody.java
C:\Users\Onkar\eclipse-workspace\RestAssuredFramework_Using_TestNg_Annotations\src\CommonMethods\ExtentListenerClass.java
C:\Users\Onkar\eclipse-workspace\RestAssuredFramework_Using_TestNg_Annotations\src\TestCases\_4_getBooking.java
C:\Users\Onkar\eclipse-workspace\RestAssuredFramework_Using_TestNg_Annotations\src\TestCases\DataProvider_Annotation_Sameclass.java
C:\Users\Onkar\eclipse-workspace\RestAssuredFramework_Using_TestNg_Annotations\src\TestCases\CreateBooking_DataDriven_testNGxml.java
