endpoint is : https://restful-booker.herokuapp.com/booking/4227



requestbody is : Request body is not given



Trigger time is : Thu, 14 Mar 2024 09:59:23 GMT



created booking id is: 4227

response body is : {
    "firstname": "Ranjeet",
    "lastname": "Patil",
    "totalprice": 222,
    "depositpaid": true,
    "bookingdates": {
        "checkin": "2024-02-03",
        "checkout": "2024-02-09"
    },
    "additionalneeds": "Lunch"
}

