endpoint is : https://restful-booker.herokuapp.com/auth



requestbody is : null



Trigger time is : Thu, 14 Mar 2024 10:40:52 GMT



created booking id is: null

response body is : {
    "token": "643d6b7f7dd7d35"
}

