endpoint is : https://restful-booker.herokuapp.com/booking/2618



requestbody is : Request body is not given



Trigger time is : Thu, 14 Mar 2024 10:36:20 GMT



created booking id is: 2618

response body is : {
    "firstname": "Ranjeet",
    "lastname": "Patil",
    "totalprice": 232,
    "depositpaid": true,
    "bookingdates": {
        "checkin": "2024-03-02",
        "checkout": "2024-03-19"
    },
    "additionalneeds": "Lunch"
}

